transcript
# vsim -c top 
# Start time: 20:58:54 on Jul 29,2025
# ** Note: (vsim-3813) Design is being optimized due to module recompilation...
# ** Warning: top.sv(23): (vopt-2241) Connection width does not match width of port 'RES'. The port definition is at: alu.v(1).
# //  Questa Sim
# //  Version 10.6c linux Jul 25 2017
# //
# //  Copyright 1991-2017 Mentor Graphics Corporation
# //  All Rights Reserved.
# //
# //  QuestaSim and its associated documentation contain trade
# //  secrets and commercial or financial information that are the property of
# //  Mentor Graphics Corporation and are privileged, confidential,
# //  and exempt from disclosure under the Freedom of Information Act,
# //  5 U.S.C. Section 552. Furthermore, this information
# //  is prohibited from disclosure under the Trade Secrets Act,
# //  18 U.S.C. Section 1905.
# //
# Loading sv_std.std
# Loading work.top_sv_unit(fast)
# Loading work.top(fast)
# Loading work.interfs(fast)
# @time = 0 Randomized: inp_valid = 10 | mode = 1 | cmd = 6 | ce = 1 | opa =227 | opb = 197 | cin= 1
# @time = 0 Randomized: inp_valid = 00 | mode = 0 | cmd = 3 | ce = 1 | opa =215 | opb = 65 | cin= 0
# @time = 0 Randomized: inp_valid = 11 | mode = 0 | cmd = 5 | ce = 1 | opa =247 | opb = 133 | cin= 1
# @time = 0 Randomized: inp_valid = 11 | mode = 1 | cmd = 8 | ce = 1 | opa =175 | opb = 136 | cin= 0
# @time = 0 Randomized: inp_valid = 11 | mode = 1 | cmd = 9 | ce = 1 | opa =186 | opb = 107 | cin= 0
# @time = 0 Randomized: inp_valid = 00 | mode = 0 | cmd = 6 | ce = 1 | opa =93 | opb = 231 | cin= 1
# @time = 0 Randomized: inp_valid = 01 | mode = 0 | cmd = 6 | ce = 1 | opa =116 | opb = 31 | cin= 1
# @time = 0 Randomized: inp_valid = 10 | mode = 0 | cmd = 10 | ce = 1 | opa =172 | opb = 7 | cin= 0
# @time = 0 Randomized: inp_valid = 00 | mode = 0 | cmd = 6 | ce = 1 | opa =188 | opb = 182 | cin= 0
# @time = 0 Randomized: inp_valid = 00 | mode = 0 | cmd = 4 | ce = 1 | opa =187 | opb = 106 | cin= 0
# @time = 0 Randomized: inp_valid = 10 | mode = 1 | cmd = 6 | ce = 1 | opa =24 | opb = 76 | cin= 0
# @time = 0 Randomized: inp_valid = 11 | mode = 1 | cmd = 6 | ce = 1 | opa =33 | opb = 248 | cin= 0
# @time = 0 Randomized: inp_valid = 00 | mode = 1 | cmd = 1 | ce = 1 | opa =21 | opb = 230 | cin= 1
# @time = 0 Randomized: inp_valid = 00 | mode = 1 | cmd = 3 | ce = 1 | opa =134 | opb = 17 | cin= 1
# @time = 0 Randomized: inp_valid = 01 | mode = 0 | cmd = 8 | ce = 1 | opa =179 | opb = 204 | cin= 1
# @time = 0 Randomized: inp_valid = 00 | mode = 1 | cmd = 2 | ce = 1 | opa =252 | opb = 47 | cin= 0
# @time = 0 Randomized: inp_valid = 11 | mode = 1 | cmd = 7 | ce = 1 | opa =170 | opb = 242 | cin= 1
# @time = 0 Randomized: inp_valid = 00 | mode = 0 | cmd = 5 | ce = 1 | opa =178 | opb = 22 | cin= 0
# @time = 0 Randomized: inp_valid = 10 | mode = 0 | cmd = 7 | ce = 1 | opa =88 | opb = 224 | cin= 0
# @time = 0 Randomized: inp_valid = 00 | mode = 1 | cmd = 8 | ce = 1 | opa =27 | opb = 80 | cin= 0
# @time = 0 Randomized: inp_valid = 10 | mode = 0 | cmd = 7 | ce = 1 | opa =15 | opb = 119 | cin= 1
# @time = 0 Randomized: inp_valid = 10 | mode = 1 | cmd = 7 | ce = 1 | opa =195 | opb = 31 | cin= 1
# @time = 0 Randomized: inp_valid = 01 | mode = 1 | cmd = 4 | ce = 1 | opa =60 | opb = 7 | cin= 1
# @time = 0 Randomized: inp_valid = 10 | mode = 1 | cmd = 7 | ce = 1 | opa =216 | opb = 247 | cin= 1
# @time = 0 Randomized: inp_valid = 10 | mode = 0 | cmd = 10 | ce = 1 | opa =44 | opb = 2 | cin= 0
# @time = 0 Randomized: inp_valid = 10 | mode = 0 | cmd = 10 | ce = 1 | opa =228 | opb = 127 | cin= 1
# @time = 0 Randomized: inp_valid = 11 | mode = 0 | cmd = 8 | ce = 1 | opa =85 | opb = 167 | cin= 0
# @time = 0 Randomized: inp_valid = 01 | mode = 1 | cmd = 4 | ce = 1 | opa =225 | opb = 223 | cin= 1
# @time = 0 Randomized: inp_valid = 00 | mode = 0 | cmd = 0 | ce = 1 | opa =190 | opb = 91 | cin= 0
# @time = 0 Randomized: inp_valid = 11 | mode = 0 | cmd = 1 | ce = 1 | opa =145 | opb = 138 | cin= 0
# ----------------------------------------------------Driver @ time = 70----------------------------------------------------
# ce= 1 | inp_valid = 10 | mode = 1 | cmd = 6 | opa = 227 | opb = 197 | cin = 1
# Input Functional Coverage = 27
# ----------------------------------------------Reference model @time = 70-----------------------------------------------
# @time=70 | inp_valid=10 | mode=1 | cmd=6 | ce=1 | opa=227 | opb=197 | cin=1
# @time=70 | err=0 | res=198 | oflow=0 | cout=0 | g=0 | l=0 | e=0
# ----------------------------------------------------Monitor @time = 90----------------------------------------------------
#  res= 0 | err = 0 | oflow = 0 | cout = 0 | g = 0 | l = 0 | e = 0
# ----------------------------------------------Scoreboard @time=90---------------------------------------------------------
# In scoreboard @time = 90 from Monitor: 
#  res=0 |err=0 | oflow=0 | cout=0 | g=0 | l=0 | e=0
# In scoreboard @time = 90 from Reference: 
#  res=198 |err=0 | oflow=0 | cout=0 | g=0 | l=0 | e=0
# ------------------------------------Report------------------------------------
# From Reference:
# time=90 | ce=0 | mode=0 | cmd=0 | inp_valid=00 | opa=0 | opb=0 | cin=0 | res=198 | err=0 | oflow=0 | cout=0 | g=0 | l=0 | e=0 
# From Monitor:
# time=90 | ce=0 | mode=0 | cmd=0 | inp_valid=00 | opa=0 | opb=0 | cin=0 | res=0 | err=0 | oflow=0 | cout=0 | g=0 | l=0 | e=0 
# Test failed = 1
############################################################################################################################
# ----------------------------------------------------Driver @ time = 130----------------------------------------------------
# ce= 1 | inp_valid = 00 | mode = 0 | cmd = 3 | opa = 215 | opb = 65 | cin = 0
# Input Functional Coverage = 33
# ----------------------------------------------Reference model @time = 130-----------------------------------------------
# @time=130 | inp_valid=00 | mode=0 | cmd=3 | ce=1 | opa=11010111 | opb=01000001 | cin=0
# @time=130 | err=1 | res=000000000 | oflow=0 | cout=0 | g=0 | l=0 | e=0
# ----------------------------------------------------Monitor @time = 150----------------------------------------------------
#  res= 0 | err = 0 | oflow = 0 | cout = 0 | g = 0 | l = 0 | e = 0
# ----------------------------------------------Scoreboard @time=150---------------------------------------------------------
# In scoreboard @time = 150 from Monitor: 
#  res=0 |err=0 | oflow=0 | cout=0 | g=0 | l=0 | e=0
# In scoreboard @time = 150 from Reference: 
#  res=0 |err=1 | oflow=0 | cout=0 | g=0 | l=0 | e=0
# ------------------------------------Report------------------------------------
# From Reference:
# time=150 | ce=0 | mode=0 | cmd=0 | inp_valid=00 | opa=0 | opb=0 | cin=0 | res=0 | err=1 | oflow=0 | cout=0 | g=0 | l=0 | e=0 
# From Monitor:
# time=150 | ce=0 | mode=0 | cmd=0 | inp_valid=00 | opa=0 | opb=0 | cin=0 | res=0 | err=0 | oflow=0 | cout=0 | g=0 | l=0 | e=0 
# Test failed = 2
############################################################################################################################
# ----------------------------------------------------Driver @ time = 190----------------------------------------------------
# ce= 1 | inp_valid = 11 | mode = 0 | cmd = 5 | opa = 247 | opb = 133 | cin = 1
# Input Functional Coverage = 40
# ----------------------------------------------Reference model @time = 190-----------------------------------------------
# @time=190 | inp_valid=11 | mode=0 | cmd=5 | ce=1 | opa=11110111 | opb=10000101 | cin=1
# @time=190 | err=0 | res=010001101 | oflow=0 | cout=0 | g=0 | l=0 | e=0
# ----------------------------------------------------Monitor @time = 210----------------------------------------------------
#  res= 141 | err = 0 | oflow = 0 | cout = 0 | g = 0 | l = 0 | e = 0
# ----------------------------------------------Scoreboard @time=210---------------------------------------------------------
# In scoreboard @time = 210 from Monitor: 
#  res=141 |err=0 | oflow=0 | cout=0 | g=0 | l=0 | e=0
# In scoreboard @time = 210 from Reference: 
#  res=141 |err=0 | oflow=0 | cout=0 | g=0 | l=0 | e=0
# ------------------------------------Report------------------------------------
# From Reference:
# time=210 | ce=0 | mode=0 | cmd=0 | inp_valid=00 | opa=0 | opb=0 | cin=0 | res=141 | err=0 | oflow=0 | cout=0 | g=0 | l=0 | e=0 
# From Monitor:
# time=210 | ce=0 | mode=0 | cmd=0 | inp_valid=00 | opa=0 | opb=0 | cin=0 | res=141 | err=0 | oflow=0 | cout=0 | g=0 | l=0 | e=0 
# Test passed = 1
############################################################################################################################
# ----------------------------------------------------Driver @ time = 250----------------------------------------------------
# ce= 1 | inp_valid = 11 | mode = 1 | cmd = 8 | opa = 175 | opb = 136 | cin = 0
# Input Functional Coverage = 41
# ----------------------------------------------Reference model @time = 250-----------------------------------------------
# @time=250 | inp_valid=11 | mode=1 | cmd=8 | ce=1 | opa=175 | opb=136 | cin=0
# @time=250 | err=0 | res=0 | oflow=0 | cout=0 | g=1 | l=0 | e=0
# ----------------------------------------------------Monitor @time = 270----------------------------------------------------
#  res= 0 | err = 0 | oflow = 0 | cout = 0 | g = 1 | l = 0 | e = 0
# ----------------------------------------------Scoreboard @time=270---------------------------------------------------------
# In scoreboard @time = 270 from Monitor: 
#  res=0 |err=0 | oflow=0 | cout=0 | g=1 | l=0 | e=0
# In scoreboard @time = 270 from Reference: 
#  res=0 |err=0 | oflow=0 | cout=0 | g=1 | l=0 | e=0
# ------------------------------------Report------------------------------------
# From Reference:
# time=270 | ce=0 | mode=0 | cmd=0 | inp_valid=00 | opa=0 | opb=0 | cin=0 | res=0 | err=0 | oflow=0 | cout=0 | g=1 | l=0 | e=0 
# From Monitor:
# time=270 | ce=0 | mode=0 | cmd=0 | inp_valid=00 | opa=0 | opb=0 | cin=0 | res=0 | err=0 | oflow=0 | cout=0 | g=1 | l=0 | e=0 
# Test passed = 2
############################################################################################################################
# ----------------------------------------------------Driver @ time = 310----------------------------------------------------
# ce= 1 | inp_valid = 11 | mode = 1 | cmd = 9 | opa = 186 | opb = 107 | cin = 0
# Input Functional Coverage = 43
# ----------------------------------------------Reference model @time = 310-----------------------------------------------
# @time=310 | inp_valid=11 | mode=1 | cmd=9 | ce=1 | opa=186 | opb=107 | cin=0
# @time=310 | err=0 | res=228 | oflow=0 | cout=0 | g=0 | l=0 | e=0
# ----------------------------------------------------Monitor @time = 350----------------------------------------------------
#  res= 228 | err = 0 | oflow = 0 | cout = 0 | g = 0 | l = 0 | e = 0
# ----------------------------------------------Scoreboard @time=350---------------------------------------------------------
# In scoreboard @time = 350 from Monitor: 
#  res=228 |err=0 | oflow=0 | cout=0 | g=0 | l=0 | e=0
# In scoreboard @time = 350 from Reference: 
#  res=228 |err=0 | oflow=0 | cout=0 | g=0 | l=0 | e=0
# ------------------------------------Report------------------------------------
# From Reference:
# time=350 | ce=0 | mode=0 | cmd=0 | inp_valid=00 | opa=0 | opb=0 | cin=0 | res=228 | err=0 | oflow=0 | cout=0 | g=0 | l=0 | e=0 
# From Monitor:
# time=350 | ce=0 | mode=0 | cmd=0 | inp_valid=00 | opa=0 | opb=0 | cin=0 | res=228 | err=0 | oflow=0 | cout=0 | g=0 | l=0 | e=0 
# Test passed = 3
############################################################################################################################
# ----------------------------------------------------Driver @ time = 390----------------------------------------------------
# ce= 1 | inp_valid = 00 | mode = 0 | cmd = 6 | opa = 93 | opb = 231 | cin = 1
# Input Functional Coverage = 45
# ----------------------------------------------Reference model @time = 390-----------------------------------------------
# @time=390 | inp_valid=00 | mode=0 | cmd=6 | ce=1 | opa=01011101 | opb=11100111 | cin=1
# @time=390 | err=1 | res=000000000 | oflow=0 | cout=0 | g=0 | l=0 | e=0
# ----------------------------------------------------Monitor @time = 410----------------------------------------------------
#  res= 116 | err = 0 | oflow = 0 | cout = 0 | g = 0 | l = 0 | e = 0
# ----------------------------------------------Scoreboard @time=410---------------------------------------------------------
# In scoreboard @time = 410 from Monitor: 
#  res=116 |err=0 | oflow=0 | cout=0 | g=0 | l=0 | e=0
# In scoreboard @time = 410 from Reference: 
#  res=0 |err=1 | oflow=0 | cout=0 | g=0 | l=0 | e=0
# ------------------------------------Report------------------------------------
# From Reference:
# time=410 | ce=0 | mode=0 | cmd=0 | inp_valid=00 | opa=0 | opb=0 | cin=0 | res=0 | err=1 | oflow=0 | cout=0 | g=0 | l=0 | e=0 
# From Monitor:
# time=410 | ce=0 | mode=0 | cmd=0 | inp_valid=00 | opa=0 | opb=0 | cin=0 | res=116 | err=0 | oflow=0 | cout=0 | g=0 | l=0 | e=0 
# Test failed = 3
############################################################################################################################
# ----------------------------------------------------Driver @ time = 450----------------------------------------------------
# ce= 1 | inp_valid = 01 | mode = 0 | cmd = 6 | opa = 116 | opb = 31 | cin = 1
# Input Functional Coverage = 50
# ----------------------------------------------Reference model @time = 450-----------------------------------------------
# @time=450 | inp_valid=01 | mode=0 | cmd=6 | ce=1 | opa=01110100 | opb=00011111 | cin=1
# @time=450 | err=0 | res=010001011 | oflow=0 | cout=0 | g=0 | l=0 | e=0
# ----------------------------------------------------Monitor @time = 470----------------------------------------------------
#  res= 139 | err = 0 | oflow = 0 | cout = 0 | g = 0 | l = 0 | e = 0
# ----------------------------------------------Scoreboard @time=470---------------------------------------------------------
# In scoreboard @time = 470 from Monitor: 
#  res=139 |err=0 | oflow=0 | cout=0 | g=0 | l=0 | e=0
# In scoreboard @time = 470 from Reference: 
#  res=139 |err=0 | oflow=0 | cout=0 | g=0 | l=0 | e=0
# ------------------------------------Report------------------------------------
# From Reference:
# time=470 | ce=0 | mode=0 | cmd=0 | inp_valid=00 | opa=0 | opb=0 | cin=0 | res=139 | err=0 | oflow=0 | cout=0 | g=0 | l=0 | e=0 
# From Monitor:
# time=470 | ce=0 | mode=0 | cmd=0 | inp_valid=00 | opa=0 | opb=0 | cin=0 | res=139 | err=0 | oflow=0 | cout=0 | g=0 | l=0 | e=0 
# Test passed = 4
############################################################################################################################
# ----------------------------------------------------Driver @ time = 510----------------------------------------------------
# ce= 1 | inp_valid = 10 | mode = 0 | cmd = 10 | opa = 172 | opb = 7 | cin = 0
# Input Functional Coverage = 51
# ----------------------------------------------Reference model @time = 510-----------------------------------------------
# @time=510 | inp_valid=10 | mode=0 | cmd=10 | ce=1 | opa=10101100 | opb=00000111 | cin=0
# @time=510 | err=0 | res=000000011 | oflow=0 | cout=0 | g=0 | l=0 | e=0
# ----------------------------------------------------Monitor @time = 530----------------------------------------------------
#  res= 14 | err = 0 | oflow = 0 | cout = 0 | g = 0 | l = 0 | e = 0
# ----------------------------------------------Scoreboard @time=530---------------------------------------------------------
# In scoreboard @time = 530 from Monitor: 
#  res=14 |err=0 | oflow=0 | cout=0 | g=0 | l=0 | e=0
# In scoreboard @time = 530 from Reference: 
#  res=3 |err=0 | oflow=0 | cout=0 | g=0 | l=0 | e=0
# ------------------------------------Report------------------------------------
# From Reference:
# time=530 | ce=0 | mode=0 | cmd=0 | inp_valid=00 | opa=0 | opb=0 | cin=0 | res=3 | err=0 | oflow=0 | cout=0 | g=0 | l=0 | e=0 
# From Monitor:
# time=530 | ce=0 | mode=0 | cmd=0 | inp_valid=00 | opa=0 | opb=0 | cin=0 | res=14 | err=0 | oflow=0 | cout=0 | g=0 | l=0 | e=0 
# Test failed = 4
############################################################################################################################
# ----------------------------------------------------Driver @ time = 570----------------------------------------------------
# ce= 1 | inp_valid = 00 | mode = 0 | cmd = 6 | opa = 188 | opb = 182 | cin = 0
# Input Functional Coverage = 51
# ----------------------------------------------Reference model @time = 570-----------------------------------------------
# @time=570 | inp_valid=00 | mode=0 | cmd=6 | ce=1 | opa=10111100 | opb=10110110 | cin=0
# @time=570 | err=1 | res=000000000 | oflow=0 | cout=0 | g=0 | l=0 | e=0
# ----------------------------------------------------Monitor @time = 590----------------------------------------------------
#  res= 14 | err = 0 | oflow = 0 | cout = 0 | g = 0 | l = 0 | e = 0
# ----------------------------------------------Scoreboard @time=590---------------------------------------------------------
# In scoreboard @time = 590 from Monitor: 
#  res=14 |err=0 | oflow=0 | cout=0 | g=0 | l=0 | e=0
# In scoreboard @time = 590 from Reference: 
#  res=0 |err=1 | oflow=0 | cout=0 | g=0 | l=0 | e=0
# ------------------------------------Report------------------------------------
# From Reference:
# time=590 | ce=0 | mode=0 | cmd=0 | inp_valid=00 | opa=0 | opb=0 | cin=0 | res=0 | err=1 | oflow=0 | cout=0 | g=0 | l=0 | e=0 
# From Monitor:
# time=590 | ce=0 | mode=0 | cmd=0 | inp_valid=00 | opa=0 | opb=0 | cin=0 | res=14 | err=0 | oflow=0 | cout=0 | g=0 | l=0 | e=0 
# Test failed = 5
############################################################################################################################
# ----------------------------------------------------Driver @ time = 630----------------------------------------------------
# ce= 1 | inp_valid = 00 | mode = 0 | cmd = 4 | opa = 187 | opb = 106 | cin = 0
# Input Functional Coverage = 53
# ----------------------------------------------Reference model @time = 630-----------------------------------------------
# @time=630 | inp_valid=00 | mode=0 | cmd=4 | ce=1 | opa=10111011 | opb=01101010 | cin=0
# @time=630 | err=1 | res=000000000 | oflow=0 | cout=0 | g=0 | l=0 | e=0
# ----------------------------------------------------Monitor @time = 650----------------------------------------------------
#  res= 14 | err = 0 | oflow = 0 | cout = 0 | g = 0 | l = 0 | e = 0
# ----------------------------------------------Scoreboard @time=650---------------------------------------------------------
# In scoreboard @time = 650 from Monitor: 
#  res=14 |err=0 | oflow=0 | cout=0 | g=0 | l=0 | e=0
# In scoreboard @time = 650 from Reference: 
#  res=0 |err=1 | oflow=0 | cout=0 | g=0 | l=0 | e=0
# ------------------------------------Report------------------------------------
# From Reference:
# time=650 | ce=0 | mode=0 | cmd=0 | inp_valid=00 | opa=0 | opb=0 | cin=0 | res=0 | err=1 | oflow=0 | cout=0 | g=0 | l=0 | e=0 
# From Monitor:
# time=650 | ce=0 | mode=0 | cmd=0 | inp_valid=00 | opa=0 | opb=0 | cin=0 | res=14 | err=0 | oflow=0 | cout=0 | g=0 | l=0 | e=0 
# Test failed = 6
############################################################################################################################
# ----------------------------------------------------Driver @ time = 690----------------------------------------------------
# ce= 1 | inp_valid = 10 | mode = 1 | cmd = 6 | opa = 24 | opb = 76 | cin = 0
# Input Functional Coverage = 53
# ----------------------------------------------Reference model @time = 690-----------------------------------------------
# @time=690 | inp_valid=10 | mode=1 | cmd=6 | ce=1 | opa=24 | opb=76 | cin=0
# @time=690 | err=0 | res=77 | oflow=0 | cout=0 | g=0 | l=0 | e=0
# ----------------------------------------------------Monitor @time = 710----------------------------------------------------
#  res= 75 | err = 0 | oflow = 0 | cout = 0 | g = 0 | l = 0 | e = 0
# ----------------------------------------------Scoreboard @time=710---------------------------------------------------------
# In scoreboard @time = 710 from Monitor: 
#  res=75 |err=0 | oflow=0 | cout=0 | g=0 | l=0 | e=0
# In scoreboard @time = 710 from Reference: 
#  res=77 |err=0 | oflow=0 | cout=0 | g=0 | l=0 | e=0
# ------------------------------------Report------------------------------------
# From Reference:
# time=710 | ce=0 | mode=0 | cmd=0 | inp_valid=00 | opa=0 | opb=0 | cin=0 | res=77 | err=0 | oflow=0 | cout=0 | g=0 | l=0 | e=0 
# From Monitor:
# time=710 | ce=0 | mode=0 | cmd=0 | inp_valid=00 | opa=0 | opb=0 | cin=0 | res=75 | err=0 | oflow=0 | cout=0 | g=0 | l=0 | e=0 
# Test failed = 7
############################################################################################################################
# ----------------------------------------------------Driver @ time = 750----------------------------------------------------
# ce= 1 | inp_valid = 11 | mode = 1 | cmd = 6 | opa = 33 | opb = 248 | cin = 0
# Input Functional Coverage = 53
# ----------------------------------------------Reference model @time = 750-----------------------------------------------
# @time=750 | inp_valid=11 | mode=1 | cmd=6 | ce=1 | opa=33 | opb=248 | cin=0
# @time=750 | err=0 | res=249 | oflow=0 | cout=0 | g=0 | l=0 | e=0
# ----------------------------------------------------Monitor @time = 770----------------------------------------------------
#  res= 247 | err = 0 | oflow = 0 | cout = 0 | g = 0 | l = 0 | e = 0
# ----------------------------------------------Scoreboard @time=770---------------------------------------------------------
# In scoreboard @time = 770 from Monitor: 
#  res=247 |err=0 | oflow=0 | cout=0 | g=0 | l=0 | e=0
# In scoreboard @time = 770 from Reference: 
#  res=249 |err=0 | oflow=0 | cout=0 | g=0 | l=0 | e=0
# ------------------------------------Report------------------------------------
# From Reference:
# time=770 | ce=0 | mode=0 | cmd=0 | inp_valid=00 | opa=0 | opb=0 | cin=0 | res=249 | err=0 | oflow=0 | cout=0 | g=0 | l=0 | e=0 
# From Monitor:
# time=770 | ce=0 | mode=0 | cmd=0 | inp_valid=00 | opa=0 | opb=0 | cin=0 | res=247 | err=0 | oflow=0 | cout=0 | g=0 | l=0 | e=0 
# Test failed = 8
############################################################################################################################
# ----------------------------------------------------Driver @ time = 810----------------------------------------------------
# ce= 1 | inp_valid = 00 | mode = 1 | cmd = 1 | opa = 21 | opb = 230 | cin = 1
# Input Functional Coverage = 54
# ----------------------------------------------Reference model @time = 810-----------------------------------------------
# @time=810 | inp_valid=00 | mode=1 | cmd=1 | ce=1 | opa=21 | opb=230 | cin=1
# @time=810 | err=1 | res=0 | oflow=0 | cout=0 | g=0 | l=0 | e=0
# ----------------------------------------------------Monitor @time = 830----------------------------------------------------
#  res= 247 | err = 0 | oflow = 0 | cout = 0 | g = 0 | l = 0 | e = 0
# ----------------------------------------------Scoreboard @time=830---------------------------------------------------------
# In scoreboard @time = 830 from Monitor: 
#  res=247 |err=0 | oflow=0 | cout=0 | g=0 | l=0 | e=0
# In scoreboard @time = 830 from Reference: 
#  res=0 |err=1 | oflow=0 | cout=0 | g=0 | l=0 | e=0
# ------------------------------------Report------------------------------------
# From Reference:
# time=830 | ce=0 | mode=0 | cmd=0 | inp_valid=00 | opa=0 | opb=0 | cin=0 | res=0 | err=1 | oflow=0 | cout=0 | g=0 | l=0 | e=0 
# From Monitor:
# time=830 | ce=0 | mode=0 | cmd=0 | inp_valid=00 | opa=0 | opb=0 | cin=0 | res=247 | err=0 | oflow=0 | cout=0 | g=0 | l=0 | e=0 
# Test failed = 9
############################################################################################################################
# ----------------------------------------------------Driver @ time = 870----------------------------------------------------
# ce= 1 | inp_valid = 00 | mode = 1 | cmd = 3 | opa = 134 | opb = 17 | cin = 1
# Input Functional Coverage = 56
# ----------------------------------------------Reference model @time = 870-----------------------------------------------
# @time=870 | inp_valid=00 | mode=1 | cmd=3 | ce=1 | opa=134 | opb=17 | cin=1
# @time=870 | err=1 | res=0 | oflow=0 | cout=0 | g=0 | l=0 | e=0
# ----------------------------------------------------Monitor @time = 890----------------------------------------------------
#  res= 247 | err = 0 | oflow = 0 | cout = 0 | g = 0 | l = 0 | e = 0
# ----------------------------------------------Scoreboard @time=890---------------------------------------------------------
# In scoreboard @time = 890 from Monitor: 
#  res=247 |err=0 | oflow=0 | cout=0 | g=0 | l=0 | e=0
# In scoreboard @time = 890 from Reference: 
#  res=0 |err=1 | oflow=0 | cout=0 | g=0 | l=0 | e=0
# ------------------------------------Report------------------------------------
# From Reference:
# time=890 | ce=0 | mode=0 | cmd=0 | inp_valid=00 | opa=0 | opb=0 | cin=0 | res=0 | err=1 | oflow=0 | cout=0 | g=0 | l=0 | e=0 
# From Monitor:
# time=890 | ce=0 | mode=0 | cmd=0 | inp_valid=00 | opa=0 | opb=0 | cin=0 | res=247 | err=0 | oflow=0 | cout=0 | g=0 | l=0 | e=0 
# Test failed = 10
############################################################################################################################
# ----------------------------------------------------Driver @ time = 930----------------------------------------------------
# ce= 1 | inp_valid = 01 | mode = 0 | cmd = 8 | opa = 179 | opb = 204 | cin = 1
# Input Functional Coverage = 58
# ----------------------------------------------Reference model @time = 930-----------------------------------------------
# @time=930 | inp_valid=01 | mode=0 | cmd=8 | ce=1 | opa=10110011 | opb=11001100 | cin=1
# @time=930 | err=0 | res=001011001 | oflow=0 | cout=0 | g=0 | l=0 | e=0
# ----------------------------------------------------Monitor @time = 950----------------------------------------------------
#  res= 179 | err = 0 | oflow = 0 | cout = 0 | g = 0 | l = 0 | e = 0
# ----------------------------------------------Scoreboard @time=950---------------------------------------------------------
# In scoreboard @time = 950 from Monitor: 
#  res=179 |err=0 | oflow=0 | cout=0 | g=0 | l=0 | e=0
# In scoreboard @time = 950 from Reference: 
#  res=89 |err=0 | oflow=0 | cout=0 | g=0 | l=0 | e=0
# ------------------------------------Report------------------------------------
# From Reference:
# time=950 | ce=0 | mode=0 | cmd=0 | inp_valid=00 | opa=0 | opb=0 | cin=0 | res=89 | err=0 | oflow=0 | cout=0 | g=0 | l=0 | e=0 
# From Monitor:
# time=950 | ce=0 | mode=0 | cmd=0 | inp_valid=00 | opa=0 | opb=0 | cin=0 | res=179 | err=0 | oflow=0 | cout=0 | g=0 | l=0 | e=0 
# Test failed = 11
############################################################################################################################
# ----------------------------------------------------Driver @ time = 990----------------------------------------------------
# ce= 1 | inp_valid = 00 | mode = 1 | cmd = 2 | opa = 252 | opb = 47 | cin = 0
# Input Functional Coverage = 59
# ----------------------------------------------Reference model @time = 990-----------------------------------------------
# @time=990 | inp_valid=00 | mode=1 | cmd=2 | ce=1 | opa=252 | opb=47 | cin=0
# @time=990 | err=1 | res=0 | oflow=0 | cout=0 | g=0 | l=0 | e=0
# ----------------------------------------------------Monitor @time = 1010----------------------------------------------------
#  res= 0 | err = 0 | oflow = 0 | cout = 0 | g = 0 | l = 1 | e = 0
# ----------------------------------------------Scoreboard @time=1010---------------------------------------------------------
# In scoreboard @time = 1010 from Monitor: 
#  res=0 |err=0 | oflow=0 | cout=0 | g=0 | l=1 | e=0
# In scoreboard @time = 1010 from Reference: 
#  res=0 |err=1 | oflow=0 | cout=0 | g=0 | l=0 | e=0
# ------------------------------------Report------------------------------------
# From Reference:
# time=1010 | ce=0 | mode=0 | cmd=0 | inp_valid=00 | opa=0 | opb=0 | cin=0 | res=0 | err=1 | oflow=0 | cout=0 | g=0 | l=0 | e=0 
# From Monitor:
# time=1010 | ce=0 | mode=0 | cmd=0 | inp_valid=00 | opa=0 | opb=0 | cin=0 | res=0 | err=0 | oflow=0 | cout=0 | g=0 | l=1 | e=0 
# Test failed = 12
############################################################################################################################
# ----------------------------------------------------Driver @ time = 1050----------------------------------------------------
# ce= 1 | inp_valid = 11 | mode = 1 | cmd = 7 | opa = 170 | opb = 242 | cin = 1
# Input Functional Coverage = 61
# ----------------------------------------------Reference model @time = 1050-----------------------------------------------
# @time=1050 | inp_valid=11 | mode=1 | cmd=7 | ce=1 | opa=170 | opb=242 | cin=1
# @time=1050 | err=0 | res=241 | oflow=0 | cout=0 | g=0 | l=0 | e=0
# ----------------------------------------------------Monitor @time = 1070----------------------------------------------------
#  res= 243 | err = 0 | oflow = 0 | cout = 0 | g = 0 | l = 0 | e = 0
# ----------------------------------------------Scoreboard @time=1070---------------------------------------------------------
# In scoreboard @time = 1070 from Monitor: 
#  res=243 |err=0 | oflow=0 | cout=0 | g=0 | l=0 | e=0
# In scoreboard @time = 1070 from Reference: 
#  res=241 |err=0 | oflow=0 | cout=0 | g=0 | l=0 | e=0
# ------------------------------------Report------------------------------------
# From Reference:
# time=1070 | ce=0 | mode=0 | cmd=0 | inp_valid=00 | opa=0 | opb=0 | cin=0 | res=241 | err=0 | oflow=0 | cout=0 | g=0 | l=0 | e=0 
# From Monitor:
# time=1070 | ce=0 | mode=0 | cmd=0 | inp_valid=00 | opa=0 | opb=0 | cin=0 | res=243 | err=0 | oflow=0 | cout=0 | g=0 | l=0 | e=0 
# Test failed = 13
############################################################################################################################
# ----------------------------------------------------Driver @ time = 1110----------------------------------------------------
# ce= 1 | inp_valid = 00 | mode = 0 | cmd = 5 | opa = 178 | opb = 22 | cin = 0
# Input Functional Coverage = 61
# ----------------------------------------------Reference model @time = 1110-----------------------------------------------
# @time=1110 | inp_valid=00 | mode=0 | cmd=5 | ce=1 | opa=10110010 | opb=00010110 | cin=0
# @time=1110 | err=1 | res=000000000 | oflow=0 | cout=0 | g=0 | l=0 | e=0
# ----------------------------------------------------Monitor @time = 1130----------------------------------------------------
#  res= 13 | err = 0 | oflow = 0 | cout = 0 | g = 0 | l = 0 | e = 0
# ----------------------------------------------Scoreboard @time=1130---------------------------------------------------------
# In scoreboard @time = 1130 from Monitor: 
#  res=13 |err=0 | oflow=0 | cout=0 | g=0 | l=0 | e=0
# In scoreboard @time = 1130 from Reference: 
#  res=0 |err=1 | oflow=0 | cout=0 | g=0 | l=0 | e=0
# ------------------------------------Report------------------------------------
# From Reference:
# time=1130 | ce=0 | mode=0 | cmd=0 | inp_valid=00 | opa=0 | opb=0 | cin=0 | res=0 | err=1 | oflow=0 | cout=0 | g=0 | l=0 | e=0 
# From Monitor:
# time=1130 | ce=0 | mode=0 | cmd=0 | inp_valid=00 | opa=0 | opb=0 | cin=0 | res=13 | err=0 | oflow=0 | cout=0 | g=0 | l=0 | e=0 
# Test failed = 14
############################################################################################################################
# ----------------------------------------------------Driver @ time = 1170----------------------------------------------------
# ce= 1 | inp_valid = 10 | mode = 0 | cmd = 7 | opa = 88 | opb = 224 | cin = 0
# Input Functional Coverage = 63
# ----------------------------------------------Reference model @time = 1170-----------------------------------------------
# @time=1170 | inp_valid=10 | mode=0 | cmd=7 | ce=1 | opa=01011000 | opb=11100000 | cin=0
# @time=1170 | err=0 | res=000011111 | oflow=0 | cout=0 | g=0 | l=0 | e=0
# ----------------------------------------------------Monitor @time = 1190----------------------------------------------------
#  res= 31 | err = 0 | oflow = 0 | cout = 0 | g = 0 | l = 0 | e = 0
# ----------------------------------------------Scoreboard @time=1190---------------------------------------------------------
# In scoreboard @time = 1190 from Monitor: 
#  res=31 |err=0 | oflow=0 | cout=0 | g=0 | l=0 | e=0
