transcript
# vsim -c work.top -do "coverage save -onexit coverage.ucdb; run -all; exit" 
# Start time: 14:56:24 on Jul 29,2025
# ** Note: (vsim-3813) Design is being optimized due to module recompilation...
# ** Warning: top.sv(23): (vopt-2241) Connection width does not match width of port 'RES'. The port definition is at: alu.v(1).
# //  Questa Sim
# //  Version 10.6c linux Jul 25 2017
# //
# //  Copyright 1991-2017 Mentor Graphics Corporation
# //  All Rights Reserved.
# //
# //  QuestaSim and its associated documentation contain trade
# //  secrets and commercial or financial information that are the property of
# //  Mentor Graphics Corporation and are privileged, confidential,
# //  and exempt from disclosure under the Freedom of Information Act,
# //  5 U.S.C. Section 552. Furthermore, this information
# //  is prohibited from disclosure under the Trade Secrets Act,
# //  18 U.S.C. Section 1905.
# //
# Loading sv_std.std
# Loading work.top_sv_unit(fast)
# Loading work.top(fast)
# Loading work.interfs(fast)
# coverage save -onexit coverage.ucdb
#  run -all
# @time = 0 Randomized: inp_valid = 00 | mode = 0 | cmd = 11 | ce = 0 | opa =11 | opb = 20 | cin= 1
# @time = 0 Randomized: inp_valid = 00 | mode = 1 | cmd = 2 | ce = 1 | opa =104 | opb = 117 | cin= 1
# @time = 0 Randomized: inp_valid = 10 | mode = 0 | cmd = 10 | ce = 1 | opa =234 | opb = 114 | cin= 0
# @time = 0 Randomized: inp_valid = 10 | mode = 1 | cmd = 7 | ce = 0 | opa =37 | opb = 105 | cin= 0
# @time = 0 Randomized: inp_valid = 10 | mode = 1 | cmd = 7 | ce = 1 | opa =100 | opb = 171 | cin= 1
# @time = 0 Randomized: inp_valid = 01 | mode = 0 | cmd = 8 | ce = 0 | opa =145 | opb = 53 | cin= 1
# @time = 0 Randomized: inp_valid = 10 | mode = 1 | cmd = 6 | ce = 1 | opa =145 | opb = 67 | cin= 1
# @time = 0 Randomized: inp_valid = 01 | mode = 0 | cmd = 9 | ce = 0 | opa =134 | opb = 78 | cin= 0
# @time = 0 Randomized: inp_valid = 00 | mode = 0 | cmd = 2 | ce = 0 | opa =228 | opb = 197 | cin= 1
# @time = 0 Randomized: inp_valid = 01 | mode = 0 | cmd = 6 | ce = 1 | opa =184 | opb = 202 | cin= 0
# time = 30 In design: MODE=x | CMD=xxxx | OPA=x | OPB=x | CIN=x
# ----------------------------------------------------Driver @ time = 70----------------------------------------------------
# ce= 0 | inp_valid = 00 | mode = 0 | cmd = 11 | opa = 11 | opb = 20 | cin = 1
# Input Functional Coverage = 26
# In CE=0
# ----------------------------------------------Reference model @time = 70-----------------------------------------------
# @time=70 | inp_valid=00 | mode=0 | cmd=11 | ce=0 | opa=00001011 | opb=00010100 | cin=1
# @time=70 | err=0 | res=000000000 | oflow=0 | cout=0 | g=0 | l=0 | e=0
# In scoreboard @time = 70 from Reference: 
#  res=0 |err=0 | oflow=0 | cout=0 | g=0 | l=0 | e=0
# ----------------------------------------------------Monitor @time = 90----------------------------------------------------
#  res= 0 | err = 0 | oflow = 0 | cout = 0 | g = 0 | l = 0 | e = 0
# ----------------------------------------------Scoreboard @time=90---------------------------------------------------------
# In scoreboard @time = 90 from Monitor: 
#  res=0 |err=0 | oflow=0 | cout=0 | g=0 | l=0 | e=0
# ------------------------------------Report------------------------------------
# From Reference:
# time=90 | ce=0 | mode=0 | cmd=0 | inp_valid=00 | opa=0 | opb=0 | cin=0 | res=0 | err=0 | oflow=0 | cout=0 | g=0 | l=0 | e=0 
# From Monitor:
# time=90 | ce=0 | mode=0 | cmd=0 | inp_valid=00 | opa=0 | opb=0 | cin=0 | res=0 | err=0 | oflow=0 | cout=0 | g=0 | l=0 | e=0 
# Test passed = 1
############################################################################################################################
# ----------------------------------------------------Driver @ time = 130----------------------------------------------------
# ce= 1 | inp_valid = 00 | mode = 1 | cmd = 2 | opa = 104 | opb = 117 | cin = 1
# Input Functional Coverage = 38
# ----------------------------------------------------Monitor @time = 150----------------------------------------------------
#  res= 0 | err = 0 | oflow = 0 | cout = 0 | g = 0 | l = 0 | e = 0
# ----------------------------------------------Reference model @time = 150-----------------------------------------------
# @time=150 | inp_valid=00 | mode=1 | cmd=2 | ce=1 | opa=104 | opb=117 | cin=1
# @time=150 | err=1 | res=0 | oflow=0 | cout=0 | g=0 | l=0 | e=0
# ----------------------------------------------Scoreboard @time=150---------------------------------------------------------
# In scoreboard @time = 150 from Monitor: 
#  res=0 |err=0 | oflow=0 | cout=0 | g=0 | l=0 | e=0
# In scoreboard @time = 150 from Reference: 
#  res=0 |err=1 | oflow=0 | cout=0 | g=0 | l=0 | e=0
# ------------------------------------Report------------------------------------
# From Reference:
# time=150 | ce=0 | mode=0 | cmd=0 | inp_valid=00 | opa=0 | opb=0 | cin=0 | res=0 | err=1 | oflow=0 | cout=0 | g=0 | l=0 | e=0 
# From Monitor:
# time=150 | ce=0 | mode=0 | cmd=0 | inp_valid=00 | opa=0 | opb=0 | cin=0 | res=0 | err=0 | oflow=0 | cout=0 | g=0 | l=0 | e=0 
# Test failed = 1
############################################################################################################################
# ----------------------------------------------------Driver @ time = 190----------------------------------------------------
# ce= 1 | inp_valid = 10 | mode = 0 | cmd = 10 | opa = 234 | opb = 114 | cin = 0
# Input Functional Coverage = 45
# ----------------------------------------------------Monitor @time = 210----------------------------------------------------
#  res= 0 | err = 0 | oflow = 0 | cout = 0 | g = 0 | l = 0 | e = 0
# ----------------------------------------------Reference model @time = 210-----------------------------------------------
# @time=210 | inp_valid=10 | mode=0 | cmd=10 | ce=1 | opa=11101010 | opb=01110010 | cin=0
# @time=210 | err=0 | res=000111001 | oflow=0 | cout=0 | g=0 | l=0 | e=0
# ----------------------------------------------Scoreboard @time=210---------------------------------------------------------
# In scoreboard @time = 210 from Monitor: 
#  res=0 |err=0 | oflow=0 | cout=0 | g=0 | l=0 | e=0
# In scoreboard @time = 210 from Reference: 
#  res=57 |err=0 | oflow=0 | cout=0 | g=0 | l=0 | e=0
# ------------------------------------Report------------------------------------
# From Reference:
# time=210 | ce=0 | mode=0 | cmd=0 | inp_valid=00 | opa=0 | opb=0 | cin=0 | res=57 | err=0 | oflow=0 | cout=0 | g=0 | l=0 | e=0 
# From Monitor:
# time=210 | ce=0 | mode=0 | cmd=0 | inp_valid=00 | opa=0 | opb=0 | cin=0 | res=0 | err=0 | oflow=0 | cout=0 | g=0 | l=0 | e=0 
# Test failed = 2
############################################################################################################################
# ----------------------------------------------------Driver @ time = 250----------------------------------------------------
# ce= 0 | inp_valid = 10 | mode = 1 | cmd = 7 | opa = 37 | opb = 105 | cin = 0
# Input Functional Coverage = 46
# In CE=0
# ----------------------------------------------Reference model @time = 250-----------------------------------------------
# @time=250 | inp_valid=10 | mode=1 | cmd=7 | ce=0 | opa=37 | opb=105 | cin=0
# @time=250 | err=0 | res=57 | oflow=0 | cout=0 | g=0 | l=0 | e=0
# In scoreboard @time = 250 from Reference: 
#  res=57 |err=0 | oflow=0 | cout=0 | g=0 | l=0 | e=0
# ----------------------------------------------------Monitor @time = 270----------------------------------------------------
#  res= 0 | err = 0 | oflow = 0 | cout = 0 | g = 0 | l = 0 | e = 0
# ----------------------------------------------Scoreboard @time=270---------------------------------------------------------
# In scoreboard @time = 270 from Monitor: 
#  res=0 |err=0 | oflow=0 | cout=0 | g=0 | l=0 | e=0
# ------------------------------------Report------------------------------------
# From Reference:
# time=270 | ce=0 | mode=0 | cmd=0 | inp_valid=00 | opa=0 | opb=0 | cin=0 | res=57 | err=0 | oflow=0 | cout=0 | g=0 | l=0 | e=0 
# From Monitor:
# time=270 | ce=0 | mode=0 | cmd=0 | inp_valid=00 | opa=0 | opb=0 | cin=0 | res=0 | err=0 | oflow=0 | cout=0 | g=0 | l=0 | e=0 
# Test failed = 3
############################################################################################################################
# ----------------------------------------------------Driver @ time = 310----------------------------------------------------
# ce= 1 | inp_valid = 10 | mode = 1 | cmd = 7 | opa = 100 | opb = 171 | cin = 1
# Input Functional Coverage = 46
# ----------------------------------------------------Monitor @time = 330----------------------------------------------------
#  res= 0 | err = 0 | oflow = 0 | cout = 0 | g = 0 | l = 0 | e = 0
# ----------------------------------------------Reference model @time = 330-----------------------------------------------
# @time=330 | inp_valid=10 | mode=1 | cmd=7 | ce=1 | opa=100 | opb=171 | cin=1
# @time=330 | err=0 | res=170 | oflow=0 | cout=0 | g=0 | l=0 | e=0
# ----------------------------------------------Scoreboard @time=330---------------------------------------------------------
# In scoreboard @time = 330 from Monitor: 
#  res=0 |err=0 | oflow=0 | cout=0 | g=0 | l=0 | e=0
# In scoreboard @time = 330 from Reference: 
#  res=170 |err=0 | oflow=0 | cout=0 | g=0 | l=0 | e=0
# ------------------------------------Report------------------------------------
# From Reference:
# time=330 | ce=0 | mode=0 | cmd=0 | inp_valid=00 | opa=0 | opb=0 | cin=0 | res=170 | err=0 | oflow=0 | cout=0 | g=0 | l=0 | e=0 
# From Monitor:
# time=330 | ce=0 | mode=0 | cmd=0 | inp_valid=00 | opa=0 | opb=0 | cin=0 | res=0 | err=0 | oflow=0 | cout=0 | g=0 | l=0 | e=0 
# Test failed = 4
############################################################################################################################
# time = 370 In design: MODE=0 | CMD=1000 | OPA=145 | OPB=53 | CIN=1
# ----------------------------------------------------Driver @ time = 370----------------------------------------------------
# ce= 0 | inp_valid = 01 | mode = 0 | cmd = 8 | opa = 145 | opb = 53 | cin = 1
# Input Functional Coverage = 53
# In CE=0
# ----------------------------------------------Reference model @time = 370-----------------------------------------------
# @time=370 | inp_valid=01 | mode=0 | cmd=8 | ce=0 | opa=10010001 | opb=00110101 | cin=1
# @time=370 | err=0 | res=010101010 | oflow=0 | cout=0 | g=0 | l=0 | e=0
# In scoreboard @time = 370 from Reference: 
#  res=170 |err=0 | oflow=0 | cout=0 | g=0 | l=0 | e=0
# time = 390 In design: MODE=0 | CMD=1000 | OPA=145 | OPB=53 | CIN=1
# ----------------------------------------------------Monitor @time = 390----------------------------------------------------
#  res= 0 | err = 0 | oflow = 0 | cout = 0 | g = 0 | l = 0 | e = 0
# ----------------------------------------------Scoreboard @time=390---------------------------------------------------------
# In scoreboard @time = 390 from Monitor: 
#  res=0 |err=0 | oflow=0 | cout=0 | g=0 | l=0 | e=0
# ------------------------------------Report------------------------------------
# From Reference:
# time=390 | ce=0 | mode=0 | cmd=0 | inp_valid=00 | opa=0 | opb=0 | cin=0 | res=170 | err=0 | oflow=0 | cout=0 | g=0 | l=0 | e=0 
# From Monitor:
# time=390 | ce=0 | mode=0 | cmd=0 | inp_valid=00 | opa=0 | opb=0 | cin=0 | res=0 | err=0 | oflow=0 | cout=0 | g=0 | l=0 | e=0 
# Test failed = 5
############################################################################################################################
# time = 410 In design: MODE=0 | CMD=1000 | OPA=145 | OPB=53 | CIN=1
# ----------------------------------------------------Driver @ time = 430----------------------------------------------------
# ce= 1 | inp_valid = 10 | mode = 1 | cmd = 6 | opa = 145 | opb = 67 | cin = 1
# Input Functional Coverage = 55
# ----------------------------------------------------Monitor @time = 450----------------------------------------------------
#  res= 66 | err = 0 | oflow = 0 | cout = 0 | g = 0 | l = 0 | e = 0
# ----------------------------------------------Reference model @time = 450-----------------------------------------------
# @time=450 | inp_valid=10 | mode=1 | cmd=6 | ce=1 | opa=145 | opb=67 | cin=1
# @time=450 | err=0 | res=68 | oflow=0 | cout=0 | g=0 | l=0 | e=0
# ----------------------------------------------Scoreboard @time=450---------------------------------------------------------
# In scoreboard @time = 450 from Monitor: 
#  res=66 |err=0 | oflow=0 | cout=0 | g=0 | l=0 | e=0
# In scoreboard @time = 450 from Reference: 
#  res=68 |err=0 | oflow=0 | cout=0 | g=0 | l=0 | e=0
# ------------------------------------Report------------------------------------
# From Reference:
# time=450 | ce=0 | mode=0 | cmd=0 | inp_valid=00 | opa=0 | opb=0 | cin=0 | res=68 | err=0 | oflow=0 | cout=0 | g=0 | l=0 | e=0 
# From Monitor:
# time=450 | ce=0 | mode=0 | cmd=0 | inp_valid=00 | opa=0 | opb=0 | cin=0 | res=66 | err=0 | oflow=0 | cout=0 | g=0 | l=0 | e=0 
# Test failed = 6
############################################################################################################################
# time = 490 In design: MODE=0 | CMD=1001 | OPA=134 | OPB=78 | CIN=0
# ----------------------------------------------------Driver @ time = 490----------------------------------------------------
# ce= 0 | inp_valid = 01 | mode = 0 | cmd = 9 | opa = 134 | opb = 78 | cin = 0
# Input Functional Coverage = 56
# In CE=0
# ----------------------------------------------Reference model @time = 490-----------------------------------------------
# @time=490 | inp_valid=01 | mode=0 | cmd=9 | ce=0 | opa=10000110 | opb=01001110 | cin=0
# @time=490 | err=0 | res=001000100 | oflow=0 | cout=0 | g=0 | l=0 | e=0
# In scoreboard @time = 490 from Reference: 
#  res=68 |err=0 | oflow=0 | cout=0 | g=0 | l=0 | e=0
# time = 510 In design: MODE=0 | CMD=1001 | OPA=134 | OPB=78 | CIN=0
# ----------------------------------------------------Monitor @time = 510----------------------------------------------------
#  res= 66 | err = 0 | oflow = 0 | cout = 0 | g = 0 | l = 0 | e = 0
# ----------------------------------------------Scoreboard @time=510---------------------------------------------------------
# In scoreboard @time = 510 from Monitor: 
#  res=66 |err=0 | oflow=0 | cout=0 | g=0 | l=0 | e=0
# ------------------------------------Report------------------------------------
# From Reference:
# time=510 | ce=0 | mode=0 | cmd=0 | inp_valid=00 | opa=0 | opb=0 | cin=0 | res=68 | err=0 | oflow=0 | cout=0 | g=0 | l=0 | e=0 
# From Monitor:
# time=510 | ce=0 | mode=0 | cmd=0 | inp_valid=00 | opa=0 | opb=0 | cin=0 | res=66 | err=0 | oflow=0 | cout=0 | g=0 | l=0 | e=0 
# Test failed = 7
############################################################################################################################
# time = 530 In design: MODE=0 | CMD=1001 | OPA=134 | OPB=78 | CIN=0
# ----------------------------------------------------Driver @ time = 550----------------------------------------------------
# ce= 0 | inp_valid = 00 | mode = 0 | cmd = 2 | opa = 228 | opb = 197 | cin = 1
# Input Functional Coverage = 58
# In CE=0
# ----------------------------------------------Reference model @time = 550-----------------------------------------------
# @time=550 | inp_valid=00 | mode=0 | cmd=2 | ce=0 | opa=11100100 | opb=11000101 | cin=1
# @time=550 | err=0 | res=001000100 | oflow=0 | cout=0 | g=0 | l=0 | e=0
# In scoreboard @time = 550 from Reference: 
#  res=68 |err=0 | oflow=0 | cout=0 | g=0 | l=0 | e=0
# ----------------------------------------------------Monitor @time = 570----------------------------------------------------
#  res= 66 | err = 0 | oflow = 0 | cout = 0 | g = 0 | l = 0 | e = 0
# ----------------------------------------------Scoreboard @time=570---------------------------------------------------------
# In scoreboard @time = 570 from Monitor: 
#  res=66 |err=0 | oflow=0 | cout=0 | g=0 | l=0 | e=0
# ------------------------------------Report------------------------------------
# From Reference:
# time=570 | ce=0 | mode=0 | cmd=0 | inp_valid=00 | opa=0 | opb=0 | cin=0 | res=68 | err=0 | oflow=0 | cout=0 | g=0 | l=0 | e=0 
# From Monitor:
# time=570 | ce=0 | mode=0 | cmd=0 | inp_valid=00 | opa=0 | opb=0 | cin=0 | res=66 | err=0 | oflow=0 | cout=0 | g=0 | l=0 | e=0 
# Test failed = 8
############################################################################################################################
# time = 610 In design: MODE=0 | CMD=0110 | OPA=184 | OPB=202 | CIN=0
# ----------------------------------------------------Driver @ time = 610----------------------------------------------------
# ce= 1 | inp_valid = 01 | mode = 0 | cmd = 6 | opa = 184 | opb = 202 | cin = 0
# Input Functional Coverage = 59
# time = 630 In design: MODE=0 | CMD=0110 | OPA=184 | OPB=202 | CIN=0
# ----------------------------------------------------Monitor @time = 630----------------------------------------------------
#  res= 71 | err = 0 | oflow = 0 | cout = 0 | g = 0 | l = 0 | e = 0
# ----------------------------------------------Reference model @time = 630-----------------------------------------------
# @time=630 | inp_valid=01 | mode=0 | cmd=6 | ce=1 | opa=10111000 | opb=11001010 | cin=0
# @time=630 | err=0 | res=001000111 | oflow=0 | cout=0 | g=0 | l=0 | e=0
# ----------------------------------------------Scoreboard @time=630---------------------------------------------------------
# In scoreboard @time = 630 from Monitor: 
#  res=71 |err=0 | oflow=0 | cout=0 | g=0 | l=0 | e=0
# In scoreboard @time = 630 from Reference: 
#  res=71 |err=0 | oflow=0 | cout=0 | g=0 | l=0 | e=0
# ------------------------------------Report------------------------------------
# From Reference:
# time=630 | ce=0 | mode=0 | cmd=0 | inp_valid=00 | opa=0 | opb=0 | cin=0 | res=71 | err=0 | oflow=0 | cout=0 | g=0 | l=0 | e=0 
# From Monitor:
# time=630 | ce=0 | mode=0 | cmd=0 | inp_valid=00 | opa=0 | opb=0 | cin=0 | res=71 | err=0 | oflow=0 | cout=0 | g=0 | l=0 | e=0 
# Test passed = 2
############################################################################################################################
# ** Note: $finish    : top.sv(49)
#    Time: 630 ns  Iteration: 4  Instance: /top
# Saving coverage database on exit...
# End time: 14:56:25 on Jul 29,2025, Elapsed time: 0:00:01
# Errors: 0, Warnings: 1
