transcript
# vsim -c top 
# Start time: 00:12:19 on Jul 29,2025
# ** Note: (vsim-8009) Loading existing optimized design _opt
# //  Questa Sim
# //  Version 10.6c linux Jul 25 2017
# //
# //  Copyright 1991-2017 Mentor Graphics Corporation
# //  All Rights Reserved.
# //
# //  QuestaSim and its associated documentation contain trade
# //  secrets and commercial or financial information that are the property of
# //  Mentor Graphics Corporation and are privileged, confidential,
# //  and exempt from disclosure under the Freedom of Information Act,
# //  5 U.S.C. Section 552. Furthermore, this information
# //  is prohibited from disclosure under the Trade Secrets Act,
# //  18 U.S.C. Section 1905.
# //
# Loading sv_std.std
# Loading work.top_sv_unit(fast)
# Loading work.top(fast)
# Loading work.interfs(fast)
# @time = 0 Randomized: inp_valid = 11 | mode = 1 | cmd = 1 | ce = 1 | opa =227 | opb = 197 | cin= 1
# @time = 0 Randomized: inp_valid = 11 | mode = 1 | cmd = 3 | ce = 1 | opa =215 | opb = 65 | cin= 0
# @time = 0 Randomized: inp_valid = 11 | mode = 1 | cmd = 2 | ce = 1 | opa =247 | opb = 133 | cin= 1
# @time = 0 Randomized: inp_valid = 11 | mode = 1 | cmd = 1 | ce = 1 | opa =175 | opb = 136 | cin= 0
# @time = 0 Randomized: inp_valid = 11 | mode = 0 | cmd = 1 | ce = 1 | opa =186 | opb = 107 | cin= 0
# @time = 0 Randomized: inp_valid = 11 | mode = 1 | cmd = 9 | ce = 1 | opa =93 | opb = 231 | cin= 1
# @time = 0 Randomized: inp_valid = 11 | mode = 0 | cmd = 3 | ce = 1 | opa =116 | opb = 31 | cin= 1
# @time = 0 Randomized: inp_valid = 11 | mode = 1 | cmd = 9 | ce = 1 | opa =172 | opb = 7 | cin= 0
# @time = 0 Randomized: inp_valid = 11 | mode = 0 | cmd = 10 | ce = 1 | opa =188 | opb = 182 | cin= 0
# @time = 0 Randomized: inp_valid = 11 | mode = 1 | cmd = 2 | ce = 1 | opa =187 | opb = 106 | cin= 0
# @time = 0 Randomized: inp_valid = 11 | mode = 1 | cmd = 0 | ce = 1 | opa =24 | opb = 76 | cin= 0
# @time = 0 Randomized: inp_valid = 11 | mode = 0 | cmd = 0 | ce = 1 | opa =33 | opb = 248 | cin= 0
# @time = 0 Randomized: inp_valid = 11 | mode = 0 | cmd = 5 | ce = 1 | opa =21 | opb = 230 | cin= 1
# @time = 0 Randomized: inp_valid = 11 | mode = 0 | cmd = 10 | ce = 1 | opa =134 | opb = 17 | cin= 1
# @time = 0 Randomized: inp_valid = 11 | mode = 0 | cmd = 5 | ce = 1 | opa =179 | opb = 204 | cin= 1
# @time = 0 Randomized: inp_valid = 11 | mode = 0 | cmd = 4 | ce = 1 | opa =252 | opb = 47 | cin= 0
# @time = 0 Randomized: inp_valid = 11 | mode = 0 | cmd = 3 | ce = 1 | opa =170 | opb = 242 | cin= 1
# @time = 0 Randomized: inp_valid = 11 | mode = 0 | cmd = 4 | ce = 1 | opa =178 | opb = 22 | cin= 0
# @time = 0 Randomized: inp_valid = 11 | mode = 1 | cmd = 9 | ce = 1 | opa =88 | opb = 224 | cin= 0
# @time = 0 Randomized: inp_valid = 11 | mode = 0 | cmd = 1 | ce = 1 | opa =27 | opb = 80 | cin= 0
# @time = 0 Randomized: inp_valid = 11 | mode = 1 | cmd = 10 | ce = 1 | opa =15 | opb = 119 | cin= 1
# @time = 0 Randomized: inp_valid = 11 | mode = 0 | cmd = 11 | ce = 1 | opa =195 | opb = 31 | cin= 1
# @time = 0 Randomized: inp_valid = 11 | mode = 0 | cmd = 3 | ce = 1 | opa =60 | opb = 7 | cin= 1
# @time = 0 Randomized: inp_valid = 11 | mode = 1 | cmd = 1 | ce = 1 | opa =216 | opb = 247 | cin= 1
# @time = 0 Randomized: inp_valid = 11 | mode = 0 | cmd = 10 | ce = 1 | opa =44 | opb = 2 | cin= 0
# @time = 0 Randomized: inp_valid = 11 | mode = 1 | cmd = 3 | ce = 1 | opa =228 | opb = 127 | cin= 1
# @time = 0 Randomized: inp_valid = 11 | mode = 0 | cmd = 3 | ce = 1 | opa =85 | opb = 167 | cin= 0
# @time = 0 Randomized: inp_valid = 11 | mode = 1 | cmd = 9 | ce = 1 | opa =225 | opb = 223 | cin= 1
# @time = 0 Randomized: inp_valid = 11 | mode = 0 | cmd = 5 | ce = 1 | opa =190 | opb = 91 | cin= 0
# @time = 0 Randomized: inp_valid = 11 | mode = 0 | cmd = 0 | ce = 1 | opa =145 | opb = 138 | cin= 0
# time = 30 In design: MODE=x | CMD=xxxx | OPA=x | OPB=x | CIN=x
# ----------------------------------------------------Driver @ time = 70----------------------------------------------------
# ce= 1 | inp_valid = 11 | mode = 1 | cmd = 1 | opa = 227 | opb = 197 | cin = 1
# ----------------------------------------------------Monitor @time = 90----------------------------------------------------
#  res= 30 | err = 0 | oflow = 0 | cout = 0 | g = 0 | l = 0 | e = 0
# ----------------------------------------------Reference model @time = 90-----------------------------------------------
# @time=90 | inp_valid=11 | mode=1 | cmd=1 | ce=1 | opa=227 | opb=197 | cin=1
# @time=90 | err=0 | res=30 | oflow=0 | cout=0 | g=0 | l=0 | e=0
# ----------------------------------------------Scoreboard @time=90---------------------------------------------------------
# In scoreboard @time = 90 from Monitor: 
#  res=30 |err=0 | oflow=0 | cout=0 | g=0 | l=0 | e=0
# In scoreboard @time = 90 from Reference: 
#  res=30 |err=0 | oflow=0 | cout=0 | g=0 | l=0 | e=0
# ------------------------------------Report------------------------------------
# From Reference:
# time=90 | ce=1 | mode=0 | cmd=0 | inp_valid=00 | opa=0 | opb=0 | cin=0 | res=30 | err=0 | oflow=0 | cout=0 | g=0 | l=0 | e=0 
# From Monitor:
# time=90 | ce=1 | mode=0 | cmd=0 | inp_valid=00 | opa=0 | opb=0 | cin=0 | res=30 | err=0 | oflow=0 | cout=0 | g=0 | l=0 | e=0 
# Test passed = 1
############################################################################################################################
# ----------------------------------------------------Driver @ time = 130----------------------------------------------------
# ce= 1 | inp_valid = 11 | mode = 1 | cmd = 3 | opa = 215 | opb = 65 | cin = 0
# 
# 
# 
# Entered
# 
# 
# 
# ----------------------------------------------------Monitor @time = 150----------------------------------------------------
#  res= 150 | err = 0 | oflow = 0 | cout = 0 | g = 0 | l = 0 | e = 0
# ----------------------------------------------Reference model @time = 150-----------------------------------------------
# @time=150 | inp_valid=11 | mode=1 | cmd=3 | ce=1 | opa=215 | opb=65 | cin=0
# @time=150 | err=0 | res=150 | oflow=0 | cout=0 | g=0 | l=0 | e=0
# ----------------------------------------------Scoreboard @time=150---------------------------------------------------------
# In scoreboard @time = 150 from Monitor: 
#  res=150 |err=0 | oflow=0 | cout=0 | g=0 | l=0 | e=0
# In scoreboard @time = 150 from Reference: 
#  res=150 |err=0 | oflow=0 | cout=0 | g=0 | l=0 | e=0
# ------------------------------------Report------------------------------------
# From Reference:
# time=150 | ce=1 | mode=0 | cmd=0 | inp_valid=00 | opa=0 | opb=0 | cin=0 | res=150 | err=0 | oflow=0 | cout=0 | g=0 | l=0 | e=0 
# From Monitor:
# time=150 | ce=1 | mode=0 | cmd=0 | inp_valid=00 | opa=0 | opb=0 | cin=0 | res=150 | err=0 | oflow=0 | cout=0 | g=0 | l=0 | e=0 
# Test passed = 2
############################################################################################################################
# ----------------------------------------------------Driver @ time = 190----------------------------------------------------
# ce= 1 | inp_valid = 11 | mode = 1 | cmd = 2 | opa = 247 | opb = 133 | cin = 1
# ----------------------------------------------------Monitor @time = 210----------------------------------------------------
#  res= 381 | err = 0 | oflow = 0 | cout = 1 | g = 0 | l = 0 | e = 0
# ----------------------------------------------Reference model @time = 210-----------------------------------------------
# @time=210 | inp_valid=11 | mode=1 | cmd=2 | ce=1 | opa=247 | opb=133 | cin=1
# @time=210 | err=0 | res=381 | oflow=0 | cout=1 | g=0 | l=0 | e=0
# ----------------------------------------------Scoreboard @time=210---------------------------------------------------------
# In scoreboard @time = 210 from Monitor: 
#  res=381 |err=0 | oflow=0 | cout=1 | g=0 | l=0 | e=0
# In scoreboard @time = 210 from Reference: 
#  res=381 |err=0 | oflow=0 | cout=1 | g=0 | l=0 | e=0
# ------------------------------------Report------------------------------------
# From Reference:
# time=210 | ce=1 | mode=0 | cmd=0 | inp_valid=00 | opa=0 | opb=0 | cin=0 | res=381 | err=0 | oflow=0 | cout=1 | g=0 | l=0 | e=0 
# From Monitor:
# time=210 | ce=1 | mode=0 | cmd=0 | inp_valid=00 | opa=0 | opb=0 | cin=0 | res=381 | err=0 | oflow=0 | cout=1 | g=0 | l=0 | e=0 
# Test passed = 3
############################################################################################################################
# ----------------------------------------------------Driver @ time = 250----------------------------------------------------
# ce= 1 | inp_valid = 11 | mode = 1 | cmd = 1 | opa = 175 | opb = 136 | cin = 0
# ----------------------------------------------------Monitor @time = 270----------------------------------------------------
#  res= 39 | err = 0 | oflow = 0 | cout = 0 | g = 0 | l = 0 | e = 0
# ----------------------------------------------Reference model @time = 270-----------------------------------------------
# @time=270 | inp_valid=11 | mode=1 | cmd=1 | ce=1 | opa=175 | opb=136 | cin=0
# @time=270 | err=0 | res=39 | oflow=0 | cout=0 | g=0 | l=0 | e=0
# ----------------------------------------------Scoreboard @time=270---------------------------------------------------------
# In scoreboard @time = 270 from Monitor: 
#  res=39 |err=0 | oflow=0 | cout=0 | g=0 | l=0 | e=0
# In scoreboard @time = 270 from Reference: 
#  res=39 |err=0 | oflow=0 | cout=0 | g=0 | l=0 | e=0
# ------------------------------------Report------------------------------------
# From Reference:
# time=270 | ce=1 | mode=0 | cmd=0 | inp_valid=00 | opa=0 | opb=0 | cin=0 | res=39 | err=0 | oflow=0 | cout=0 | g=0 | l=0 | e=0 
# From Monitor:
# time=270 | ce=1 | mode=0 | cmd=0 | inp_valid=00 | opa=0 | opb=0 | cin=0 | res=39 | err=0 | oflow=0 | cout=0 | g=0 | l=0 | e=0 
# Test passed = 4
############################################################################################################################
# ----------------------------------------------------Driver @ time = 310----------------------------------------------------
# ce= 1 | inp_valid = 11 | mode = 0 | cmd = 1 | opa = 186 | opb = 107 | cin = 0
# ----------------------------------------------------Monitor @time = 330----------------------------------------------------
#  res= 213 | err = 0 | oflow = 0 | cout = 0 | g = 0 | l = 0 | e = 0
# ----------------------------------------------Reference model @time = 330-----------------------------------------------
# @time=330 | inp_valid=11 | mode=0 | cmd=1 | ce=1 | opa=186 | opb=107 | cin=0
# @time=330 | err=0 | res=213 | oflow=0 | cout=0 | g=0 | l=0 | e=0
# ----------------------------------------------Scoreboard @time=330---------------------------------------------------------
# In scoreboard @time = 330 from Monitor: 
#  res=213 |err=0 | oflow=0 | cout=0 | g=0 | l=0 | e=0
# In scoreboard @time = 330 from Reference: 
#  res=213 |err=0 | oflow=0 | cout=0 | g=0 | l=0 | e=0
# ------------------------------------Report------------------------------------
# From Reference:
# time=330 | ce=1 | mode=0 | cmd=0 | inp_valid=00 | opa=0 | opb=0 | cin=0 | res=213 | err=0 | oflow=0 | cout=0 | g=0 | l=0 | e=0 
# From Monitor:
# time=330 | ce=1 | mode=0 | cmd=0 | inp_valid=00 | opa=0 | opb=0 | cin=0 | res=213 | err=0 | oflow=0 | cout=0 | g=0 | l=0 | e=0 
# Test passed = 5
############################################################################################################################
# ----------------------------------------------------Driver @ time = 370----------------------------------------------------
# ce= 1 | inp_valid = 11 | mode = 1 | cmd = 9 | opa = 93 | opb = 231 | cin = 1
# ----------------------------------------------------Monitor @time = 410----------------------------------------------------
#  res= 304 | err = 0 | oflow = 0 | cout = 0 | g = 0 | l = 0 | e = 0
# ----------------------------------------------Reference model @time = 410-----------------------------------------------
# @time=410 | inp_valid=11 | mode=1 | cmd=9 | ce=1 | opa=93 | opb=231 | cin=1
# @time=410 | err=0 | res=304 | oflow=0 | cout=0 | g=0 | l=0 | e=0
# ----------------------------------------------Scoreboard @time=410---------------------------------------------------------
# In scoreboard @time = 410 from Monitor: 
#  res=304 |err=0 | oflow=0 | cout=0 | g=0 | l=0 | e=0
# In scoreboard @time = 410 from Reference: 
#  res=304 |err=0 | oflow=0 | cout=0 | g=0 | l=0 | e=0
# ------------------------------------Report------------------------------------
# From Reference:
# time=410 | ce=1 | mode=0 | cmd=0 | inp_valid=00 | opa=0 | opb=0 | cin=0 | res=304 | err=0 | oflow=0 | cout=0 | g=0 | l=0 | e=0 
# From Monitor:
# time=410 | ce=1 | mode=0 | cmd=0 | inp_valid=00 | opa=0 | opb=0 | cin=0 | res=304 | err=0 | oflow=0 | cout=0 | g=0 | l=0 | e=0 
# Test passed = 6
############################################################################################################################
# ----------------------------------------------------Driver @ time = 450----------------------------------------------------
# ce= 1 | inp_valid = 11 | mode = 0 | cmd = 3 | opa = 116 | opb = 31 | cin = 1
# ----------------------------------------------------Monitor @time = 470----------------------------------------------------
#  res= 128 | err = 0 | oflow = 0 | cout = 0 | g = 0 | l = 0 | e = 0
# ----------------------------------------------Reference model @time = 470-----------------------------------------------
# @time=470 | inp_valid=11 | mode=0 | cmd=3 | ce=1 | opa=116 | opb=31 | cin=1
# @time=470 | err=0 | res=128 | oflow=0 | cout=0 | g=0 | l=0 | e=0
# ----------------------------------------------Scoreboard @time=470---------------------------------------------------------
# In scoreboard @time = 470 from Monitor: 
#  res=128 |err=0 | oflow=0 | cout=0 | g=0 | l=0 | e=0
# In scoreboard @time = 470 from Reference: 
#  res=128 |err=0 | oflow=0 | cout=0 | g=0 | l=0 | e=0
# ------------------------------------Report------------------------------------
# From Reference:
# time=470 | ce=1 | mode=0 | cmd=0 | inp_valid=00 | opa=0 | opb=0 | cin=0 | res=128 | err=0 | oflow=0 | cout=0 | g=0 | l=0 | e=0 
# From Monitor:
# time=470 | ce=1 | mode=0 | cmd=0 | inp_valid=00 | opa=0 | opb=0 | cin=0 | res=128 | err=0 | oflow=0 | cout=0 | g=0 | l=0 | e=0 
# Test passed = 7
############################################################################################################################
# ----------------------------------------------------Driver @ time = 510----------------------------------------------------
# ce= 1 | inp_valid = 11 | mode = 1 | cmd = 9 | opa = 172 | opb = 7 | cin = 0
# ----------------------------------------------------Monitor @time = 550----------------------------------------------------
#  res= 360 | err = 0 | oflow = 0 | cout = 0 | g = 0 | l = 0 | e = 0
# ----------------------------------------------Reference model @time = 550-----------------------------------------------
# @time=550 | inp_valid=11 | mode=1 | cmd=9 | ce=1 | opa=172 | opb=7 | cin=0
# @time=550 | err=0 | res=360 | oflow=0 | cout=0 | g=0 | l=0 | e=0
# ----------------------------------------------Scoreboard @time=550---------------------------------------------------------
# In scoreboard @time = 550 from Monitor: 
#  res=360 |err=0 | oflow=0 | cout=0 | g=0 | l=0 | e=0
# In scoreboard @time = 550 from Reference: 
#  res=360 |err=0 | oflow=0 | cout=0 | g=0 | l=0 | e=0
# ------------------------------------Report------------------------------------
# From Reference:
# time=550 | ce=1 | mode=0 | cmd=0 | inp_valid=00 | opa=0 | opb=0 | cin=0 | res=360 | err=0 | oflow=0 | cout=0 | g=0 | l=0 | e=0 
# From Monitor:
# time=550 | ce=1 | mode=0 | cmd=0 | inp_valid=00 | opa=0 | opb=0 | cin=0 | res=360 | err=0 | oflow=0 | cout=0 | g=0 | l=0 | e=0 
# Test passed = 8
############################################################################################################################
# ----------------------------------------------------Driver @ time = 590----------------------------------------------------
# ce= 1 | inp_valid = 11 | mode = 0 | cmd = 10 | opa = 188 | opb = 182 | cin = 0
# ----------------------------------------------------Monitor @time = 610----------------------------------------------------
#  res= 108 | err = 0 | oflow = 0 | cout = 0 | g = 0 | l = 0 | e = 0
# ----------------------------------------------Reference model @time = 610-----------------------------------------------
# @time=610 | inp_valid=11 | mode=0 | cmd=10 | ce=1 | opa=188 | opb=182 | cin=0
# @time=610 | err=0 | res=91 | oflow=0 | cout=0 | g=0 | l=0 | e=0
# ----------------------------------------------Scoreboard @time=610---------------------------------------------------------
# In scoreboard @time = 610 from Monitor: 
#  res=108 |err=0 | oflow=0 | cout=0 | g=0 | l=0 | e=0
# In scoreboard @time = 610 from Reference: 
#  res=91 |err=0 | oflow=0 | cout=0 | g=0 | l=0 | e=0
# ------------------------------------Report------------------------------------
# From Reference:
# time=610 | ce=1 | mode=0 | cmd=0 | inp_valid=00 | opa=0 | opb=0 | cin=0 | res=91 | err=0 | oflow=0 | cout=0 | g=0 | l=0 | e=0 
# From Monitor:
# time=610 | ce=1 | mode=0 | cmd=0 | inp_valid=00 | opa=0 | opb=0 | cin=0 | res=108 | err=0 | oflow=0 | cout=0 | g=0 | l=0 | e=0 
# Test failed = 1
############################################################################################################################
# ----------------------------------------------------Driver @ time = 650----------------------------------------------------
# ce= 1 | inp_valid = 11 | mode = 1 | cmd = 2 | opa = 187 | opb = 106 | cin = 0
# ----------------------------------------------------Monitor @time = 670----------------------------------------------------
#  res= 293 | err = 0 | oflow = 0 | cout = 1 | g = 0 | l = 0 | e = 0
# ----------------------------------------------Reference model @time = 670-----------------------------------------------
# @time=670 | inp_valid=11 | mode=1 | cmd=2 | ce=1 | opa=187 | opb=106 | cin=0
# @time=670 | err=0 | res=293 | oflow=0 | cout=1 | g=0 | l=0 | e=0
# ----------------------------------------------Scoreboard @time=670---------------------------------------------------------
# In scoreboard @time = 670 from Monitor: 
#  res=293 |err=0 | oflow=0 | cout=1 | g=0 | l=0 | e=0
# In scoreboard @time = 670 from Reference: 
#  res=293 |err=0 | oflow=0 | cout=1 | g=0 | l=0 | e=0
# ------------------------------------Report------------------------------------
# From Reference:
# time=670 | ce=1 | mode=0 | cmd=0 | inp_valid=00 | opa=0 | opb=0 | cin=0 | res=293 | err=0 | oflow=0 | cout=1 | g=0 | l=0 | e=0 
# From Monitor:
# time=670 | ce=1 | mode=0 | cmd=0 | inp_valid=00 | opa=0 | opb=0 | cin=0 | res=293 | err=0 | oflow=0 | cout=1 | g=0 | l=0 | e=0 
# Test passed = 9
############################################################################################################################
# ----------------------------------------------------Driver @ time = 710----------------------------------------------------
# ce= 1 | inp_valid = 11 | mode = 1 | cmd = 0 | opa = 24 | opb = 76 | cin = 0
# ----------------------------------------------------Monitor @time = 730----------------------------------------------------
#  res= 100 | err = 0 | oflow = 0 | cout = 0 | g = 0 | l = 0 | e = 0
# ----------------------------------------------Reference model @time = 730-----------------------------------------------
# @time=730 | inp_valid=11 | mode=1 | cmd=0 | ce=1 | opa=24 | opb=76 | cin=0
# @time=730 | err=0 | res=100 | oflow=0 | cout=0 | g=0 | l=0 | e=0
# ----------------------------------------------Scoreboard @time=730---------------------------------------------------------
# In scoreboard @time = 730 from Monitor: 
#  res=100 |err=0 | oflow=0 | cout=0 | g=0 | l=0 | e=0
# In scoreboard @time = 730 from Reference: 
#  res=100 |err=0 | oflow=0 | cout=0 | g=0 | l=0 | e=0
# ------------------------------------Report------------------------------------
# From Reference:
# time=730 | ce=1 | mode=0 | cmd=0 | inp_valid=00 | opa=0 | opb=0 | cin=0 | res=100 | err=0 | oflow=0 | cout=0 | g=0 | l=0 | e=0 
# From Monitor:
# time=730 | ce=1 | mode=0 | cmd=0 | inp_valid=00 | opa=0 | opb=0 | cin=0 | res=100 | err=0 | oflow=0 | cout=0 | g=0 | l=0 | e=0 
# Test passed = 10
############################################################################################################################
# ----------------------------------------------------Driver @ time = 770----------------------------------------------------
# ce= 1 | inp_valid = 11 | mode = 0 | cmd = 0 | opa = 33 | opb = 248 | cin = 0
# ----------------------------------------------------Monitor @time = 790----------------------------------------------------
#  res= 32 | err = 0 | oflow = 0 | cout = 0 | g = 0 | l = 0 | e = 0
# ----------------------------------------------Reference model @time = 790-----------------------------------------------
# @time=790 | inp_valid=11 | mode=0 | cmd=0 | ce=1 | opa=33 | opb=248 | cin=0
# @time=790 | err=0 | res=32 | oflow=0 | cout=0 | g=0 | l=0 | e=0
# ----------------------------------------------Scoreboard @time=790---------------------------------------------------------
# In scoreboard @time = 790 from Monitor: 
#  res=32 |err=0 | oflow=0 | cout=0 | g=0 | l=0 | e=0
# In scoreboard @time = 790 from Reference: 
#  res=32 |err=0 | oflow=0 | cout=0 | g=0 | l=0 | e=0
# ------------------------------------Report------------------------------------
# From Reference:
# time=790 | ce=1 | mode=0 | cmd=0 | inp_valid=00 | opa=0 | opb=0 | cin=0 | res=32 | err=0 | oflow=0 | cout=0 | g=0 | l=0 | e=0 
# From Monitor:
# time=790 | ce=1 | mode=0 | cmd=0 | inp_valid=00 | opa=0 | opb=0 | cin=0 | res=32 | err=0 | oflow=0 | cout=0 | g=0 | l=0 | e=0 
# Test passed = 11
############################################################################################################################
# ----------------------------------------------------Driver @ time = 830----------------------------------------------------
# ce= 1 | inp_valid = 11 | mode = 0 | cmd = 5 | opa = 21 | opb = 230 | cin = 1
# ----------------------------------------------------Monitor @time = 850----------------------------------------------------
#  res= 12 | err = 0 | oflow = 0 | cout = 0 | g = 0 | l = 0 | e = 0
# ----------------------------------------------Reference model @time = 850-----------------------------------------------
# @time=850 | inp_valid=11 | mode=0 | cmd=5 | ce=1 | opa=21 | opb=230 | cin=1
# @time=850 | err=0 | res=12 | oflow=0 | cout=0 | g=0 | l=0 | e=0
# ----------------------------------------------Scoreboard @time=850---------------------------------------------------------
# In scoreboard @time = 850 from Monitor: 
#  res=12 |err=0 | oflow=0 | cout=0 | g=0 | l=0 | e=0
# In scoreboard @time = 850 from Reference: 
#  res=12 |err=0 | oflow=0 | cout=0 | g=0 | l=0 | e=0
# ------------------------------------Report------------------------------------
# From Reference:
# time=850 | ce=1 | mode=0 | cmd=0 | inp_valid=00 | opa=0 | opb=0 | cin=0 | res=12 | err=0 | oflow=0 | cout=0 | g=0 | l=0 | e=0 
# From Monitor:
# time=850 | ce=1 | mode=0 | cmd=0 | inp_valid=00 | opa=0 | opb=0 | cin=0 | res=12 | err=0 | oflow=0 | cout=0 | g=0 | l=0 | e=0 
# Test passed = 12
############################################################################################################################
# ----------------------------------------------------Driver @ time = 890----------------------------------------------------
# ce= 1 | inp_valid = 11 | mode = 0 | cmd = 10 | opa = 134 | opb = 17 | cin = 1
# ----------------------------------------------------Monitor @time = 910----------------------------------------------------
#  res= 34 | err = 0 | oflow = 0 | cout = 0 | g = 0 | l = 0 | e = 0
# ----------------------------------------------Reference model @time = 910-----------------------------------------------
# @time=910 | inp_valid=11 | mode=0 | cmd=10 | ce=1 | opa=134 | opb=17 | cin=1
# @time=910 | err=0 | res=8 | oflow=0 | cout=0 | g=0 | l=0 | e=0
# ----------------------------------------------Scoreboard @time=910---------------------------------------------------------
# In scoreboard @time = 910 from Monitor: 
#  res=34 |err=0 | oflow=0 | cout=0 | g=0 | l=0 | e=0
# In scoreboard @time = 910 from Reference: 
#  res=8 |err=0 | oflow=0 | cout=0 | g=0 | l=0 | e=0
# ------------------------------------Report------------------------------------
# From Reference:
# time=910 | ce=1 | mode=0 | cmd=0 | inp_valid=00 | opa=0 | opb=0 | cin=0 | res=8 | err=0 | oflow=0 | cout=0 | g=0 | l=0 | e=0 
# From Monitor:
# time=910 | ce=1 | mode=0 | cmd=0 | inp_valid=00 | opa=0 | opb=0 | cin=0 | res=34 | err=0 | oflow=0 | cout=0 | g=0 | l=0 | e=0 
# Test failed = 2
############################################################################################################################
# ----------------------------------------------------Driver @ time = 950----------------------------------------------------
# ce= 1 | inp_valid = 11 | mode = 0 | cmd = 5 | opa = 179 | opb = 204 | cin = 1
# ----------------------------------------------------Monitor @time = 970----------------------------------------------------
#  res= 128 | err = 0 | oflow = 0 | cout = 0 | g = 0 | l = 0 | e = 0
# ----------------------------------------------Reference model @time = 970-----------------------------------------------
# @time=970 | inp_valid=11 | mode=0 | cmd=5 | ce=1 | opa=179 | opb=204 | cin=1
# @time=970 | err=0 | res=128 | oflow=0 | cout=0 | g=0 | l=0 | e=0
# ----------------------------------------------Scoreboard @time=970---------------------------------------------------------
# In scoreboard @time = 970 from Monitor: 
#  res=128 |err=0 | oflow=0 | cout=0 | g=0 | l=0 | e=0
# In scoreboard @time = 970 from Reference: 
#  res=128 |err=0 | oflow=0 | cout=0 | g=0 | l=0 | e=0
# ------------------------------------Report------------------------------------
# From Reference:
# time=970 | ce=1 | mode=0 | cmd=0 | inp_valid=00 | opa=0 | opb=0 | cin=0 | res=128 | err=0 | oflow=0 | cout=0 | g=0 | l=0 | e=0 
# From Monitor:
# time=970 | ce=1 | mode=0 | cmd=0 | inp_valid=00 | opa=0 | opb=0 | cin=0 | res=128 | err=0 | oflow=0 | cout=0 | g=0 | l=0 | e=0 
# Test passed = 13
############################################################################################################################
# ----------------------------------------------------Driver @ time = 1010----------------------------------------------------
# ce= 1 | inp_valid = 11 | mode = 0 | cmd = 4 | opa = 252 | opb = 47 | cin = 0
# ----------------------------------------------------Monitor @time = 1030----------------------------------------------------
#  res= 211 | err = 0 | oflow = 0 | cout = 0 | g = 0 | l = 0 | e = 0
# ----------------------------------------------Reference model @time = 1030-----------------------------------------------
# @time=1030 | inp_valid=11 | mode=0 | cmd=4 | ce=1 | opa=252 | opb=47 | cin=0
# @time=1030 | err=0 | res=211 | oflow=0 | cout=0 | g=0 | l=0 | e=0
# ----------------------------------------------Scoreboard @time=1030---------------------------------------------------------
# In scoreboard @time = 1030 from Monitor: 
#  res=211 |err=0 | oflow=0 | cout=0 | g=0 | l=0 | e=0
# In scoreboard @time = 1030 from Reference: 
#  res=211 |err=0 | oflow=0 | cout=0 | g=0 | l=0 | e=0
# ------------------------------------Report------------------------------------
# From Reference:
# time=1030 | ce=1 | mode=0 | cmd=0 | inp_valid=00 | opa=0 | opb=0 | cin=0 | res=211 | err=0 | oflow=0 | cout=0 | g=0 | l=0 | e=0 
# From Monitor:
# time=1030 | ce=1 | mode=0 | cmd=0 | inp_valid=00 | opa=0 | opb=0 | cin=0 | res=211 | err=0 | oflow=0 | cout=0 | g=0 | l=0 | e=0 
# Test passed = 14
############################################################################################################################
# ----------------------------------------------------Driver @ time = 1070----------------------------------------------------
# ce= 1 | inp_valid = 11 | mode = 0 | cmd = 3 | opa = 170 | opb = 242 | cin = 1
# ----------------------------------------------------Monitor @time = 1090----------------------------------------------------
#  res= 5 | err = 0 | oflow = 0 | cout = 0 | g = 0 | l = 0 | e = 0
# ----------------------------------------------Reference model @time = 1090-----------------------------------------------
# @time=1090 | inp_valid=11 | mode=0 | cmd=3 | ce=1 | opa=170 | opb=242 | cin=1
# @time=1090 | err=0 | res=5 | oflow=0 | cout=0 | g=0 | l=0 | e=0
# ----------------------------------------------Scoreboard @time=1090---------------------------------------------------------
# In scoreboard @time = 1090 from Monitor: 
#  res=5 |err=0 | oflow=0 | cout=0 | g=0 | l=0 | e=0
# In scoreboard @time = 1090 from Reference: 
#  res=5 |err=0 | oflow=0 | cout=0 | g=0 | l=0 | e=0
# ------------------------------------Report------------------------------------
# From Reference:
# time=1090 | ce=1 | mode=0 | cmd=0 | inp_valid=00 | opa=0 | opb=0 | cin=0 | res=5 | err=0 | oflow=0 | cout=0 | g=0 | l=0 | e=0 
# From Monitor:
# time=1090 | ce=1 | mode=0 | cmd=0 | inp_valid=00 | opa=0 | opb=0 | cin=0 | res=5 | err=0 | oflow=0 | cout=0 | g=0 | l=0 | e=0 
# Test passed = 15
############################################################################################################################
# ----------------------------------------------------Driver @ time = 1130----------------------------------------------------
# ce= 1 | inp_valid = 11 | mode = 0 | cmd = 4 | opa = 178 | opb = 22 | cin = 0
# ----------------------------------------------------Monitor @time = 1150----------------------------------------------------
#  res= 164 | err = 0 | oflow = 0 | cout = 0 | g = 0 | l = 0 | e = 0
# ----------------------------------------------Reference model @time = 1150-----------------------------------------------
# @time=1150 | inp_valid=11 | mode=0 | cmd=4 | ce=1 | opa=178 | opb=22 | cin=0
# @time=1150 | err=0 | res=164 | oflow=0 | cout=0 | g=0 | l=0 | e=0
# ----------------------------------------------Scoreboard @time=1150---------------------------------------------------------
# In scoreboard @time = 1150 from Monitor: 
#  res=164 |err=0 | oflow=0 | cout=0 | g=0 | l=0 | e=0
# In scoreboard @time = 1150 from Reference: 
#  res=164 |err=0 | oflow=0 | cout=0 | g=0 | l=0 | e=0
# ------------------------------------Report------------------------------------
# From Reference:
# time=1150 | ce=1 | mode=0 | cmd=0 | inp_valid=00 | opa=0 | opb=0 | cin=0 | res=164 | err=0 | oflow=0 | cout=0 | g=0 | l=0 | e=0 
# From Monitor:
# time=1150 | ce=1 | mode=0 | cmd=0 | inp_valid=00 | opa=0 | opb=0 | cin=0 | res=164 | err=0 | oflow=0 | cout=0 | g=0 | l=0 | e=0 
# Test passed = 16
############################################################################################################################
# ----------------------------------------------------Driver @ time = 1190----------------------------------------------------
# ce= 1 | inp_valid = 11 | mode = 1 | cmd = 9 | opa = 88 | opb = 224 | cin = 0
# ----------------------------------------------------Monitor @time = 1230----------------------------------------------------
#  res= 57 | err = 0 | oflow = 0 | cout = 0 | g = 0 | l = 0 | e = 0
# ----------------------------------------------Reference model @time = 1230-----------------------------------------------
# @time=1230 | inp_valid=11 | mode=1 | cmd=9 | ce=1 | opa=88 | opb=224 | cin=0
# @time=1230 | err=0 | res=57 | oflow=0 | cout=0 | g=0 | l=0 | e=0
# ----------------------------------------------Scoreboard @time=1230---------------------------------------------------------
# In scoreboard @time = 1230 from Monitor: 
#  res=57 |err=0 | oflow=0 | cout=0 | g=0 | l=0 | e=0
# In scoreboard @time = 1230 from Reference: 
#  res=57 |err=0 | oflow=0 | cout=0 | g=0 | l=0 | e=0
# ------------------------------------Report------------------------------------
# From Reference:
# time=1230 | ce=1 | mode=0 | cmd=0 | inp_valid=00 | opa=0 | opb=0 | cin=0 | res=57 | err=0 | oflow=0 | cout=0 | g=0 | l=0 | e=0 
# From Monitor:
# time=1230 | ce=1 | mode=0 | cmd=0 | inp_valid=00 | opa=0 | opb=0 | cin=0 | res=57 | err=0 | oflow=0 | cout=0 | g=0 | l=0 | e=0 
# Test passed = 17
############################################################################################################################
# ----------------------------------------------------Driver @ time = 1270----------------------------------------------------
